{
  "type": "mysql",
  "host": "localhost",
  "port": 3306,
  "username": "root",
  "password": "",
  "database": "makeupecommerce",
  "entities": ["dist/**/*.entity{.ts,.js}"],
  "synchronize": true
}
